<svg xmlns="http://www.w3.org/2000/svg" style="isolation:isolate" viewBox="0 0 128 128" width="128pt" height="128pt">
  <path d=" M 0 35.71 C 0 33.817 0.721 31.916 2.175 30.466 C 5.071 27.57 9.758 27.57 12.655 30.466 L 63.999 81.814 L 115.348 30.466 C 118.244 27.57 122.935 27.57 125.828 30.466 C 128.724 33.362 128.724 38.054 125.828 40.95 L 69.243 97.534 C 66.347 100.43 61.656 100.43 58.763 97.534 L 2.175 40.95 C 0.725 39.504 0 37.607 0 35.71 Z " fill="rgb(0,0,0)"/>
</svg>
